198.163.150.220

142.13.17.35
142.13.147.13

142.132.1.178
142.132.1.22
142.132.20.70
142.132.20.76
142.132.20.247
142.132.72.168
142.132.77.115
142.132.79.40
142.132.192.8

192.139.69.1
192.139.69.7
192.139.69.9
192.139.69.11
192.139.69.17
192.139.69.20
192.139.69.23
192.139.69.40
192.139.69.41
192.139.69.44
192.139.69.80
192.139.69.84
192.139.69.85
192.139.69.86
192.139.69.87
192.139.69.128
192.139.69.129
192.139.69.161
192.139.69.174
192.139.69.176
192.139.69.177
192.139.69.183

192.245.51.1
192.245.51.2

198.163.144.6
198.163.144.50
198.163.144.57
198.163.144.93
198.163.144.123

198.163.150.215

198.163.159.3
198.163.159.5
198.163.159.68
198.163.159.82
198.163.159.87

198.163.221.1

216.36.130.12
216.36.130.51
216.36.130.52

64.4.90.98

